[
  "uit",
  "fantabulous",
  "spork",
  "smog",
  "spanglish",
  "gerrymander",
  "turducken",
  "stagflation",
  "bromance",
  "freeware",
  "oxbridge",
  "palimony",
  "netiquette",
  "brunch",
  "blog",
  "chortle",
  "Hassenpfeffer",
  "Schnitzelbank"
]